[
  {
    "id": "272caf8c-bcc9-29da-49a4-9bf28b55126a",
    "name": "features",
    "label": "Features",
    "required": false,
    "locked": false,
    "occurrence": {
      "min": null,
      "max": null,
      "sorting_label_field": null,
      "default": 8
    },
    "children": [
      {
        "id": "da945c4c-7230-d248-1d6e-7df865a09fc6",
        "name": "title",
        "label": "Title",
        "required": false,
        "locked": false,
        "validation_regex": "",
        "placeholder": "Reliable system",
        "allow_new_line": false,
        "show_emoji_picker": true,
        "type": "text",
        "default": "Reliable system"
      },
      {
        "id": "fa5a7103-ae3d-2f23-b9e1-7bf8f8f05059",
        "name": "description",
        "label": "Description",
        "required": false,
        "locked": false,
        "validation_regex": "",
        "placeholder": "From direct integrations with card networks and banks to checkout flows in the browser, we operate on and optimize at every level of the financial stack.",
        "allow_new_line": false,
        "show_emoji_picker": true,
        "type": "text",
        "default": "From direct integrations with card networks and banks to checkout flows in the browser, we operate on and optimize at every level of the financial stack."
      },
      {
        "id": "a6830af8-00b8-d040-a8d0-cb3ca2eeeb66",
        "name": "figure",
        "label": "Figure",
        "required": false,
        "locked": false,
        "children": [
          {
            "id": "ff51d411-0b7c-bfca-9060-f6cbca7ec08d",
            "name": "type",
            "label": "Type",
            "required": true,
            "locked": false,
            "display": "select",
            "choices": [
              ["img", "Image"],
              ["icon", "Icon"]
            ],
            "type": "choice"
          },
          {
            "id": "82cdcd3d-1206-39b5-1c05-316ba59892a0",
            "name": "image",
            "label": "Image",
            "required": false,
            "locked": false,
            "visibility": {
              "controlling_field": "ff51d411-0b7c-bfca-9060-f6cbca7ec08d",
              "controlling_value_regex": "img",
              "operator": "EQUAL",
              "access": null,
              "hidden_subfields": null
            },
            "responsive": true,
            "resizable": true,
            "show_loading": false,
            "type": "image",
            "default": {
              "size_type": "auto",
              "src": "",
              "alt": null,
              "loading": "disabled"
            }
          },
          {
            "id": "65aed3a5-4bbb-2585-30c6-b8808c0793f7",
            "name": "icon",
            "label": "Icon",
            "required": false,
            "locked": false,
            "visibility": {
              "controlling_field": "ff51d411-0b7c-bfca-9060-f6cbca7ec08d",
              "controlling_value_regex": "icon",
              "operator": "EQUAL",
              "access": null,
              "hidden_subfields": null
            },
            "type": "icon",
            "default": {}
          }
        ],
        "tab": "CONTENT",
        "type": "group",
        "default": {
          "image": {
            "size_type": "auto",
            "src": "",
            "alt": null,
            "loading": "disabled"
          },
          "icon": {}
        }
      }
    ],
    "tab": "CONTENT",
    "type": "group",
    "default": [
      {
        "title": "Reliable system",
        "description": "From direct integrations with card networks and banks to checkout flows in the browser, we operate on and optimize at every level of the financial stack.",
        "figure": {
          "image": {
            "size_type": "auto",
            "src": "",
            "alt": null,
            "loading": "disabled"
          },
          "type": "icon",
          "icon": {
            "name": "codepen",
            "unicode": "f1cb",
            "type": "REGULAR"
          }
        }
      },
      {
        "title": "Reliable system",
        "description": "From direct integrations with card networks and banks to checkout flows in the browser, we operate on and optimize at every level of the financial stack.",
        "figure": {
          "image": {
            "size_type": "auto",
            "src": "",
            "alt": null,
            "loading": "disabled"
          },
          "type": "icon",
          "icon": {
            "name": "codepen"
          }
        }
      },
      {
        "title": "Reliable system",
        "description": "From direct integrations with card networks and banks to checkout flows in the browser, we operate on and optimize at every level of the financial stack.",
        "figure": {
          "image": {
            "size_type": "auto",
            "src": "",
            "alt": null,
            "loading": "disabled"
          },
          "type": "icon",
          "icon": {
            "name": "codepen"
          }
        }
      },
      {
        "title": "Reliable system",
        "description": "From direct integrations with card networks and banks to checkout flows in the browser, we operate on and optimize at every level of the financial stack.",
        "figure": {
          "image": {
            "size_type": "auto",
            "src": "",
            "alt": null,
            "loading": "disabled"
          },
          "type": "icon",
          "icon": {
            "name": "codepen"
          }
        }
      },
      {
        "title": "Reliable system",
        "description": "From direct integrations with card networks and banks to checkout flows in the browser, we operate on and optimize at every level of the financial stack.",
        "figure": {
          "image": {
            "size_type": "auto",
            "src": "",
            "alt": null,
            "loading": "disabled"
          },
          "type": "icon",
          "icon": {
            "name": "codepen"
          }
        }
      },
      {
        "title": "Reliable system",
        "description": "From direct integrations with card networks and banks to checkout flows in the browser, we operate on and optimize at every level of the financial stack.",
        "figure": {
          "image": {
            "size_type": "auto",
            "src": "",
            "alt": null,
            "loading": "disabled"
          },
          "type": "icon",
          "icon": {
            "name": "codepen"
          }
        }
      },
      {
        "title": "Reliable system",
        "description": "From direct integrations with card networks and banks to checkout flows in the browser, we operate on and optimize at every level of the financial stack.",
        "figure": {
          "image": {
            "size_type": "auto",
            "src": "",
            "alt": null,
            "loading": "disabled"
          },
          "type": "icon",
          "icon": {
            "name": "codepen"
          }
        }
      },
      {
        "title": "Reliable system",
        "description": "From direct integrations with card networks and banks to checkout flows in the browser, we operate on and optimize at every level of the financial stack.",
        "figure": {
          "image": {
            "size_type": "auto",
            "src": "",
            "alt": null,
            "loading": "disabled"
          },
          "type": "icon",
          "icon": {
            "name": "codepen"
          }
        }
      }
    ]
  }
]
