{
  "global": false,
  "smart_type": "NOT_SMART",
  "icon": "https://f.hubspotusercontent40.net/hubfs/8071749/Simple%20footer.svg",
  "host_template_types": ["PAGE", "BLOG_POST", "BLOG_LISTING"],
  "module_id": 36633780194,
  "css_assets": [
    {
      "autoload": true,
      "path": "../../css/main.css",
      "name": "main.css"
    }
  ],
  "label": "Simple Footer",
  "is_available_for_new_content": true
}
