<svg width="1566" height="616" viewBox="0 0 1566 616" fill="none" xmlns="http://www.w3.org/2000/svg">
<g clip-path="url(#clip0)">
<rect width="1566" height="616" fill="white"/>
<mask id="mask0" mask-type="alpha" maskUnits="userSpaceOnUse" x="893" y="196" width="495" height="471">
<path fill-rule="evenodd" clip-rule="evenodd" d="M1365.05 462.988C1368.92 513.781 1356.87 569.03 1321.32 605.513C1286.47 641.28 1232.12 647.313 1182.28 650.547C1139.04 653.354 1099.69 636.315 1058.59 622.566C1013.49 607.476 959.083 605.054 931.185 566.537C902.776 527.315 913.789 474.006 915.949 425.624C918.204 375.1 909.187 317.011 943.96 280.288C978.535 243.774 1037.51 254.771 1086.86 245.126C1133.74 235.964 1181.7 205.644 1225.22 225.315C1268.59 244.919 1277.11 301.007 1301.25 342.03C1324.94 382.305 1361.5 416.396 1365.05 462.988Z" fill="#DAE3F9" stroke="#DAE3F9"/>
</mask>
<g mask="url(#mask0)">
<path d="M1478.37 464.709L966.214 -202.85" stroke="#DAE3F9" stroke-width="2"/>
<path d="M1476.34 472.193L964.189 -195.365" stroke="#DAE3F9" stroke-width="2"/>
<path d="M1474.32 479.674L962.16 -187.885" stroke="#DAE3F9" stroke-width="2"/>
<path d="M1472.29 487.156L960.131 -180.403" stroke="#DAE3F9" stroke-width="2"/>
<path d="M1470.26 494.638L958.103 -172.921" stroke="#DAE3F9" stroke-width="2"/>
<path d="M1468.23 502.12L956.076 -165.439" stroke="#DAE3F9" stroke-width="2"/>
<path d="M1466.2 509.602L954.047 -157.957" stroke="#DAE3F9" stroke-width="2"/>
<path d="M1464.17 517.082L952.017 -150.477" stroke="#DAE3F9" stroke-width="2"/>
<path d="M1462.14 524.564L949.988 -142.994" stroke="#DAE3F9" stroke-width="2"/>
<path d="M1460.12 532.047L947.96 -135.512" stroke="#DAE3F9" stroke-width="2"/>
<path d="M1458.09 539.529L945.933 -128.03" stroke="#DAE3F9" stroke-width="2"/>
<path d="M1456.06 547.011L943.904 -120.548" stroke="#DAE3F9" stroke-width="2"/>
<path d="M1454.03 554.492L941.875 -113.067" stroke="#DAE3F9" stroke-width="2"/>
<path d="M1452 561.974L939.848 -105.585" stroke="#DAE3F9" stroke-width="2"/>
<path d="M1449.98 569.455L937.82 -98.1037" stroke="#DAE3F9" stroke-width="2"/>
<path d="M1447.95 576.938L935.79 -90.6213" stroke="#DAE3F9" stroke-width="2"/>
<path d="M1445.92 584.419L933.763 -83.1399" stroke="#DAE3F9" stroke-width="2"/>
<path d="M1443.89 591.9L931.732 -75.6584" stroke="#DAE3F9" stroke-width="2"/>
<path d="M1441.86 599.384L929.705 -68.175" stroke="#DAE3F9" stroke-width="2"/>
<path d="M1439.83 606.864L927.676 -60.6946" stroke="#DAE3F9" stroke-width="2"/>
<path d="M1437.8 614.346L925.647 -53.2131" stroke="#DAE3F9" stroke-width="2"/>
<path d="M1435.77 621.829L923.619 -45.7297" stroke="#DAE3F9" stroke-width="2"/>
<path d="M1433.75 629.31L921.591 -38.2493" stroke="#DAE3F9" stroke-width="2"/>
<path d="M1431.72 636.792L919.562 -30.7668" stroke="#DAE3F9" stroke-width="2"/>
<path d="M1429.69 644.275L917.534 -23.2834" stroke="#DAE3F9" stroke-width="2"/>
<path d="M1427.66 651.755L915.505 -15.8039" stroke="#DAE3F9" stroke-width="2"/>
<path d="M1425.63 659.237L913.476 -8.32152" stroke="#DAE3F9" stroke-width="2"/>
<path d="M1423.6 666.719L911.449 -0.840076" stroke="#DAE3F9" stroke-width="2"/>
<path d="M1421.58 674.2L909.421 6.64137" stroke="#DAE3F9" stroke-width="2"/>
<path d="M1419.55 681.684L907.391 14.1248" stroke="#DAE3F9" stroke-width="2"/>
<path d="M1417.52 689.163L905.364 21.6043" stroke="#DAE3F9" stroke-width="2"/>
<path d="M1415.49 696.646L903.335 29.0867" stroke="#DAE3F9" stroke-width="2"/>
<path d="M1413.46 704.129L901.306 36.5701" stroke="#DAE3F9" stroke-width="2"/>
<path d="M1411.43 711.609L899.277 44.0505" stroke="#DAE3F9" stroke-width="2"/>
<path d="M1409.4 719.092L897.248 51.533" stroke="#DAE3F9" stroke-width="2"/>
<path d="M1407.38 726.574L895.221 59.0154" stroke="#DAE3F9" stroke-width="2"/>
<path d="M1405.35 734.055L893.192 66.4959" stroke="#DAE3F9" stroke-width="2"/>
<path d="M1403.32 741.537L891.163 73.9783" stroke="#DAE3F9" stroke-width="2"/>
<path d="M1401.29 749.02L889.135 81.4607" stroke="#DAE3F9" stroke-width="2"/>
<path d="M1399.26 756.5L887.107 88.9412" stroke="#DAE3F9" stroke-width="2"/>
<path d="M1397.23 763.982L885.078 96.4236" stroke="#DAE3F9" stroke-width="2"/>
<path d="M1395.21 771.465L883.05 103.906" stroke="#DAE3F9" stroke-width="2"/>
<path d="M1393.18 778.946L881.021 111.387" stroke="#DAE3F9" stroke-width="2"/>
<path d="M1391.15 786.429L878.993 118.87" stroke="#DAE3F9" stroke-width="2"/>
<path d="M1389.12 793.91L876.965 126.351" stroke="#DAE3F9" stroke-width="2"/>
<path d="M1387.09 801.392L874.936 133.833" stroke="#DAE3F9" stroke-width="2"/>
<path d="M1385.06 808.873L872.907 141.314" stroke="#DAE3F9" stroke-width="2"/>
<path d="M1383.03 816.356L870.879 148.797" stroke="#DAE3F9" stroke-width="2"/>
<path d="M1381.01 823.838L868.851 156.279" stroke="#DAE3F9" stroke-width="2"/>
<path d="M1378.98 831.318L866.822 163.76" stroke="#DAE3F9" stroke-width="2"/>
<path d="M1376.95 838.801L864.794 171.242" stroke="#DAE3F9" stroke-width="2"/>
<path d="M1374.92 846.283L862.765 178.724" stroke="#DAE3F9" stroke-width="2"/>
<path d="M1372.89 853.765L860.736 186.206" stroke="#DAE3F9" stroke-width="2"/>
<path d="M1370.86 861.246L858.709 193.687" stroke="#DAE3F9" stroke-width="2"/>
<path d="M1368.84 868.727L856.68 201.168" stroke="#DAE3F9" stroke-width="2"/>
<path d="M1366.81 876.21L854.652 208.651" stroke="#DAE3F9" stroke-width="2"/>
<path d="M1364.78 883.692L852.624 216.134" stroke="#DAE3F9" stroke-width="2"/>
<path d="M1362.75 891.172L850.595 223.613" stroke="#DAE3F9" stroke-width="2"/>
<path d="M1360.72 898.654L848.566 231.095" stroke="#DAE3F9" stroke-width="2"/>
<path d="M1358.69 906.138L846.538 238.579" stroke="#DAE3F9" stroke-width="2"/>
<path d="M1356.67 913.618L844.51 246.059" stroke="#DAE3F9" stroke-width="2"/>
<path d="M1354.64 921.102L842.48 253.543" stroke="#DAE3F9" stroke-width="2"/>
<path d="M1352.61 928.585L840.453 261.026" stroke="#DAE3F9" stroke-width="2"/>
<path d="M1350.58 936.064L838.423 268.506" stroke="#DAE3F9" stroke-width="2"/>
<path d="M1348.55 943.546L836.395 275.987" stroke="#DAE3F9" stroke-width="2"/>
<path d="M1346.52 951.027L834.367 283.469" stroke="#DAE3F9" stroke-width="2"/>
<path d="M1344.49 958.51L832.338 290.951" stroke="#DAE3F9" stroke-width="2"/>
<path d="M1342.47 965.992L830.31 298.433" stroke="#DAE3F9" stroke-width="2"/>
<path d="M1340.44 973.472L828.281 305.913" stroke="#DAE3F9" stroke-width="2"/>
<path d="M1338.41 980.955L826.253 313.396" stroke="#DAE3F9" stroke-width="2"/>
<path d="M1336.38 988.438L824.225 320.879" stroke="#DAE3F9" stroke-width="2"/>
<path d="M1334.35 995.918L822.197 328.359" stroke="#DAE3F9" stroke-width="2"/>
<path d="M1332.32 1003.4L820.167 335.842" stroke="#DAE3F9" stroke-width="2"/>
<path d="M1330.29 1010.88L818.139 343.323" stroke="#DAE3F9" stroke-width="2"/>
<path d="M1328.27 1018.36L816.111 350.804" stroke="#DAE3F9" stroke-width="2"/>
<path d="M1326.24 1025.85L814.081 358.288" stroke="#DAE3F9" stroke-width="2"/>
<path d="M1324.21 1033.33L812.054 365.769" stroke="#DAE3F9" stroke-width="2"/>
<path d="M1322.18 1040.81L810.025 373.25" stroke="#DAE3F9" stroke-width="2"/>
<path d="M1320.15 1048.29L807.996 380.733" stroke="#DAE3F9" stroke-width="2"/>
<path d="M1318.12 1055.77L805.969 388.215" stroke="#DAE3F9" stroke-width="2"/>
<path d="M1316.1 1063.25L803.94 395.696" stroke="#DAE3F9" stroke-width="2"/>
<path d="M1314.07 1070.74L801.911 403.178" stroke="#DAE3F9" stroke-width="2"/>
<path d="M1312.04 1078.22L799.883 410.658" stroke="#DAE3F9" stroke-width="2"/>
<path d="M1310.01 1085.7L797.855 418.141" stroke="#DAE3F9" stroke-width="2"/>
<path d="M1307.98 1093.18L795.826 425.623" stroke="#DAE3F9" stroke-width="2"/>
<path d="M1305.95 1100.66L793.797 433.103" stroke="#DAE3F9" stroke-width="2"/>
<path d="M1303.93 1108.15L791.77 440.587" stroke="#DAE3F9" stroke-width="2"/>
<path d="M1301.9 1115.63L789.741 448.069" stroke="#DAE3F9" stroke-width="2"/>
<path d="M1299.87 1123.11L787.712 455.55" stroke="#DAE3F9" stroke-width="2"/>
</g>
<mask id="mask1" mask-type="alpha" maskUnits="userSpaceOnUse" x="178" y="-171" width="517" height="545">
<path fill-rule="evenodd" clip-rule="evenodd" d="M415.317 363.594C356.765 371.58 291.956 361.445 247.255 322.794C203.433 284.903 192.696 222.378 185.512 164.893C179.279 115.013 196.295 68.2644 209.381 19.7302C223.743 -33.5387 222.794 -96.7133 265.472 -131.677C308.931 -167.281 371.423 -158.205 427.598 -159.043C486.261 -159.917 552.906 -174.367 597.831 -136.633C642.5 -99.1145 633.834 -30.0608 648.409 26.4235C662.252 80.07 700.673 133.526 680.896 185.279C661.187 236.855 596.824 250.591 550.985 281.368C505.981 311.585 469.026 356.269 415.317 363.594Z" fill="#DAE3F9" stroke="#DAE3F9"/>
</mask>
<g mask="url(#mask1)">
<path d="M421.144 494.942L1158.84 -144.195" stroke="#DAE3F9" stroke-width="2"/>
<path d="M412.337 493.111L1150.04 -146.026" stroke="#DAE3F9" stroke-width="2"/>
<path d="M403.534 491.278L1141.23 -147.86" stroke="#DAE3F9" stroke-width="2"/>
<path d="M394.731 489.446L1132.43 -149.692" stroke="#DAE3F9" stroke-width="2"/>
<path d="M385.926 487.613L1123.63 -151.525" stroke="#DAE3F9" stroke-width="2"/>
<path d="M377.121 485.782L1114.82 -153.356" stroke="#DAE3F9" stroke-width="2"/>
<path d="M368.318 483.948L1106.02 -155.19" stroke="#DAE3F9" stroke-width="2"/>
<path d="M359.515 482.114L1097.21 -157.024" stroke="#DAE3F9" stroke-width="2"/>
<path d="M350.711 480.282L1088.41 -158.856" stroke="#DAE3F9" stroke-width="2"/>
<path d="M341.906 478.449L1079.61 -160.689" stroke="#DAE3F9" stroke-width="2"/>
<path d="M333.101 476.618L1070.8 -162.52" stroke="#DAE3F9" stroke-width="2"/>
<path d="M324.299 474.784L1062 -164.354" stroke="#DAE3F9" stroke-width="2"/>
<path d="M315.495 472.951L1053.19 -166.187" stroke="#DAE3F9" stroke-width="2"/>
<path d="M306.69 471.119L1044.39 -168.019" stroke="#DAE3F9" stroke-width="2"/>
<path d="M297.887 469.287L1035.59 -169.851" stroke="#DAE3F9" stroke-width="2"/>
<path d="M289.084 467.452L1026.78 -171.686" stroke="#DAE3F9" stroke-width="2"/>
<path d="M280.279 465.621L1017.98 -173.517" stroke="#DAE3F9" stroke-width="2"/>
<path d="M271.476 463.787L1009.18 -175.351" stroke="#DAE3F9" stroke-width="2"/>
<path d="M262.671 461.956L1000.37 -177.182" stroke="#DAE3F9" stroke-width="2"/>
<path d="M253.867 460.122L991.567 -179.016" stroke="#DAE3F9" stroke-width="2"/>
<path d="M245.064 458.289L982.764 -180.849" stroke="#DAE3F9" stroke-width="2"/>
<path d="M236.26 456.456L973.959 -182.682" stroke="#DAE3F9" stroke-width="2"/>
<path d="M227.456 454.624L965.156 -184.514" stroke="#DAE3F9" stroke-width="2"/>
<path d="M218.651 452.792L956.351 -186.346" stroke="#DAE3F9" stroke-width="2"/>
<path d="M209.846 450.959L947.546 -188.179" stroke="#DAE3F9" stroke-width="2"/>
<path d="M201.045 449.125L938.745 -190.013" stroke="#DAE3F9" stroke-width="2"/>
<path d="M192.24 447.293L929.94 -191.845" stroke="#DAE3F9" stroke-width="2"/>
<path d="M183.437 445.46L921.137 -193.678" stroke="#DAE3F9" stroke-width="2"/>
<path d="M174.632 443.628L912.332 -195.51" stroke="#DAE3F9" stroke-width="2"/>
<path d="M165.827 441.795L903.526 -197.343" stroke="#DAE3F9" stroke-width="2"/>
<path d="M157.026 439.963L894.725 -199.175" stroke="#DAE3F9" stroke-width="2"/>
<path d="M148.22 438.129L885.92 -201.009" stroke="#DAE3F9" stroke-width="2"/>
<path d="M139.415 436.296L877.115 -202.842" stroke="#DAE3F9" stroke-width="2"/>
<path d="M130.612 434.463L868.312 -204.675" stroke="#DAE3F9" stroke-width="2"/>
<path d="M121.809 432.631L859.509 -206.507" stroke="#DAE3F9" stroke-width="2"/>
<path d="M113.004 430.798L850.704 -208.34" stroke="#DAE3F9" stroke-width="2"/>
<path d="M104.2 428.965L841.9 -210.173" stroke="#DAE3F9" stroke-width="2"/>
<path d="M95.3957 427.132L833.095 -212.005" stroke="#DAE3F9" stroke-width="2"/>
<path d="M86.5925 425.298L824.292 -213.839" stroke="#DAE3F9" stroke-width="2"/>
<path d="M77.7898 423.465L815.489 -215.672" stroke="#DAE3F9" stroke-width="2"/>
<path d="M68.9846 421.633L806.684 -217.504" stroke="#DAE3F9" stroke-width="2"/>
<path d="M60.1819 419.8L797.881 -219.337" stroke="#DAE3F9" stroke-width="2"/>
<path d="M51.3762 417.968L789.076 -221.169" stroke="#DAE3F9" stroke-width="2"/>
<path d="M42.5715 416.136L780.271 -223.001" stroke="#DAE3F9" stroke-width="2"/>
<path d="M33.7683 414.304L771.468 -224.833" stroke="#DAE3F9" stroke-width="2"/>
<path d="M24.9656 412.47L762.665 -226.667" stroke="#DAE3F9" stroke-width="2"/>
<path d="M16.1619 410.636L753.861 -228.501" stroke="#DAE3F9" stroke-width="2"/>
<path d="M7.35669 408.805L745.056 -230.332" stroke="#DAE3F9" stroke-width="2"/>
<path d="M-1.448 406.972L736.252 -232.165" stroke="#DAE3F9" stroke-width="2"/>
<path d="M-10.2493 405.138L727.45 -233.999" stroke="#DAE3F9" stroke-width="2"/>
<path d="M-19.054 403.306L718.646 -235.831" stroke="#DAE3F9" stroke-width="2"/>
<path d="M-27.8596 401.474L709.84 -237.663" stroke="#DAE3F9" stroke-width="2"/>
<path d="M-36.6624 399.641L701.037 -239.496" stroke="#DAE3F9" stroke-width="2"/>
<path d="M-45.4651 397.809L692.234 -241.328" stroke="#DAE3F9" stroke-width="2"/>
<path d="M-54.2688 395.974L683.431 -243.163" stroke="#DAE3F9" stroke-width="2"/>
<path d="M-63.0735 394.143L674.626 -244.994" stroke="#DAE3F9" stroke-width="2"/>
<path d="M-71.8782 392.31L665.821 -246.827" stroke="#DAE3F9" stroke-width="2"/>
<path d="M-80.6799 390.477L657.02 -248.66" stroke="#DAE3F9" stroke-width="2"/>
<path d="M-89.4851 388.645L648.214 -250.492" stroke="#DAE3F9" stroke-width="2"/>
<path d="M-98.2898 386.811L639.41 -252.326" stroke="#DAE3F9" stroke-width="2"/>
<path d="M-107.093 384.979L630.607 -254.158" stroke="#DAE3F9" stroke-width="2"/>
<path d="M-115.898 383.145L621.801 -255.992" stroke="#DAE3F9" stroke-width="2"/>
<path d="M-124.703 381.314L612.996 -257.823" stroke="#DAE3F9" stroke-width="2"/>
<path d="M-133.507 379.48L604.193 -259.657" stroke="#DAE3F9" stroke-width="2"/>
<path d="M-142.309 377.647L595.39 -261.49" stroke="#DAE3F9" stroke-width="2"/>
<path d="M-151.113 375.815L586.587 -263.322" stroke="#DAE3F9" stroke-width="2"/>
<path d="M-159.918 373.982L577.782 -265.155" stroke="#DAE3F9" stroke-width="2"/>
<path d="M-168.723 372.15L568.977 -266.987" stroke="#DAE3F9" stroke-width="2"/>
<path d="M-177.524 370.317L560.175 -268.82" stroke="#DAE3F9" stroke-width="2"/>
<path d="M-186.329 368.485L551.371 -270.652" stroke="#DAE3F9" stroke-width="2"/>
<path d="M-195.134 366.652L542.566 -272.485" stroke="#DAE3F9" stroke-width="2"/>
<path d="M-203.937 364.819L533.762 -274.318" stroke="#DAE3F9" stroke-width="2"/>
<path d="M-212.74 362.985L524.959 -276.152" stroke="#DAE3F9" stroke-width="2"/>
<path d="M-221.543 361.153L516.156 -277.985" stroke="#DAE3F9" stroke-width="2"/>
<path d="M-230.348 359.32L507.351 -279.818" stroke="#DAE3F9" stroke-width="2"/>
<path d="M-239.154 357.487L498.546 -281.651" stroke="#DAE3F9" stroke-width="2"/>
<path d="M-247.957 355.655L489.743 -283.483" stroke="#DAE3F9" stroke-width="2"/>
<path d="M-256.76 353.822L480.94 -285.316" stroke="#DAE3F9" stroke-width="2"/>
<path d="M-265.565 351.99L472.135 -287.148" stroke="#DAE3F9" stroke-width="2"/>
<path d="M-274.368 350.156L463.332 -288.982" stroke="#DAE3F9" stroke-width="2"/>
<path d="M-283.173 348.324L454.526 -290.814" stroke="#DAE3F9" stroke-width="2"/>
<path d="M-291.976 346.491L445.723 -292.647" stroke="#DAE3F9" stroke-width="2"/>
<path d="M-300.779 344.659L436.921 -294.479" stroke="#DAE3F9" stroke-width="2"/>
<path d="M-309.584 342.827L428.115 -296.311" stroke="#DAE3F9" stroke-width="2"/>
<path d="M-318.387 340.993L419.313 -298.145" stroke="#DAE3F9" stroke-width="2"/>
<path d="M-327.191 339.159L410.509 -299.979" stroke="#DAE3F9" stroke-width="2"/>
<path d="M-335.995 337.328L401.705 -301.81" stroke="#DAE3F9" stroke-width="2"/>
<path d="M-344.801 335.495L392.899 -303.643" stroke="#DAE3F9" stroke-width="2"/>
<path d="M-353.604 333.663L384.096 -305.475" stroke="#DAE3F9" stroke-width="2"/>
</g>
</g>
<defs>
<clipPath id="clip0">
<rect width="1566" height="616" fill="white"/>
</clipPath>
</defs>
</svg>
