[
  {
    "id": "preheader",
    "name": "preheader",
    "label": "Preheader",
    "required": false,
    "locked": false,
    "validation_regex": "",
    "allow_new_line": false,
    "show_emoji_picker": false,
    "type": "text",
    "default": ""
  },
  {
    "id": "cb24ff1d-ed51-f76c-180e-f0a742d001c7",
    "name": "content",
    "label": "Content",
    "required": false,
    "locked": false,
    "type": "richtext",
    "default": "<h1>Your marketing team, from the ground up</h1>\n<p>Your pain? We understand. This is why we do what we do, and can provide you with an experience like no other.</p>"
  },
  {
    "id": "c0152a5f-59d7-c85a-fcd3-d4e22037881f",
    "name": "primary_cta",
    "label": "Primary CTA",
    "required": false,
    "locked": false,
    "children": [
      {
        "id": "6b8e8c9c-6ca0-185d-ba80-043566df29ec",
        "name": "type",
        "label": "Type",
        "required": true,
        "locked": false,
        "display": "select",
        "choices": [
          ["btn", "Button"],
          ["cta", "HubSpot CTA"],
          ["none", "None"]
        ],
        "type": "choice",
        "default": "none"
      },
      {
        "id": "7a528494-617f-50ef-fe9c-9217e135a993",
        "name": "style",
        "label": "Style",
        "required": true,
        "locked": false,
        "visibility": {
          "controlling_field": "6b8e8c9c-6ca0-185d-ba80-043566df29ec",
          "controlling_value_regex": "btn",
          "operator": "EQUAL",
          "access": null,
          "hidden_subfields": null
        },
        "display": "select",
        "choices": [
          ["filled", "Filled"],
          ["outlined", "Outlined"],
          ["arrow", "Arrow"]
        ],
        "type": "choice",
        "default": "filled"
      },
      {
        "id": "db76661d-a004-f7ca-3fef-59284b2f9cc4",
        "name": "text",
        "label": "Text",
        "required": false,
        "locked": false,
        "validation_regex": "",
        "visibility": {
          "controlling_field": "6b8e8c9c-6ca0-185d-ba80-043566df29ec",
          "controlling_value_regex": "btn",
          "operator": "EQUAL",
          "access": null,
          "hidden_subfields": null
        },
        "placeholder": "GET STARTED",
        "allow_new_line": false,
        "show_emoji_picker": true,
        "type": "text",
        "default": "GET STARTED"
      },
      {
        "id": "9f093f80-d8c3-ddb5-3950-31e9d423a93d",
        "name": "link",
        "label": "Link",
        "required": false,
        "locked": false,
        "validation_regex": "",
        "visibility": {
          "controlling_field": "6b8e8c9c-6ca0-185d-ba80-043566df29ec",
          "controlling_value_regex": "btn",
          "operator": "EQUAL",
          "access": null,
          "hidden_subfields": null
        },
        "placeholder": "https://example.com",
        "allow_new_line": false,
        "show_emoji_picker": false,
        "type": "text",
        "default": "#"
      },
      {
        "id": "3152f85e-8420-23da-ad53-ad8693e7eed5",
        "name": "cta",
        "label": "CTA",
        "required": false,
        "locked": false,
        "visibility": {
          "controlling_field": "6b8e8c9c-6ca0-185d-ba80-043566df29ec",
          "controlling_value_regex": "cta",
          "operator": "EQUAL",
          "access": null,
          "hidden_subfields": null
        },
        "type": "cta"
      }
    ],
    "tab": "CONTENT",
    "expanded": false,
    "type": "group",
    "default": {
      "type": "none",
      "style": "filled",
      "text": "GET STARTED",
      "link": "#"
    }
  },
  {
    "id": "d768f108-1524-7e5c-589d-7dda9db7f67a",
    "name": "secondary_cta",
    "label": "Secondary CTA",
    "required": false,
    "locked": false,
    "children": [
      {
        "id": "280cfa1e-3ef0-0d34-d558-9e60b7430e16",
        "name": "type",
        "label": "Type",
        "required": true,
        "locked": false,
        "display": "select",
        "choices": [
          ["btn", "Button"],
          ["cta", "HubSpot CTA"],
          ["none", "None"]
        ],
        "type": "choice",
        "default": "none"
      },
      {
        "id": "0666906f-ea7e-2789-a2c8-afbf13404588",
        "name": "style",
        "label": "Style",
        "required": true,
        "locked": false,
        "visibility": {
          "controlling_field": "280cfa1e-3ef0-0d34-d558-9e60b7430e16",
          "controlling_value_regex": "btn",
          "operator": "EQUAL",
          "access": null,
          "hidden_subfields": null
        },
        "display": "select",
        "choices": [
          ["filled", "Filled"],
          ["outlined", "Outlined"],
          ["arrow", "Arrow"]
        ],
        "type": "choice",
        "default": "filled"
      },
      {
        "id": "4a0718fa-ee88-6b0a-7850-b424ac053770",
        "name": "text",
        "label": "Text",
        "required": false,
        "locked": false,
        "validation_regex": "",
        "visibility": {
          "controlling_field": "280cfa1e-3ef0-0d34-d558-9e60b7430e16",
          "controlling_value_regex": "btn",
          "operator": "EQUAL",
          "access": null,
          "hidden_subfields": null
        },
        "placeholder": "LEARN MORE",
        "allow_new_line": false,
        "show_emoji_picker": true,
        "type": "text",
        "default": "LEARN MORE"
      },
      {
        "id": "0c125450-4cc4-9f99-5922-9b5a8c075e95",
        "name": "link",
        "label": "Link",
        "required": false,
        "locked": false,
        "validation_regex": "",
        "visibility": {
          "controlling_field": "280cfa1e-3ef0-0d34-d558-9e60b7430e16",
          "controlling_value_regex": "btn",
          "operator": "EQUAL",
          "access": null,
          "hidden_subfields": null
        },
        "placeholder": "https://example.com",
        "allow_new_line": false,
        "show_emoji_picker": false,
        "type": "text",
        "default": "#"
      },
      {
        "id": "secondary_cta.cta",
        "name": "cta",
        "label": "CTA",
        "required": false,
        "locked": false,
        "visibility": {
          "controlling_field": "280cfa1e-3ef0-0d34-d558-9e60b7430e16",
          "controlling_value_regex": "cta",
          "operator": "EQUAL",
          "access": null,
          "hidden_subfields": null
        },
        "type": "cta"
      }
    ],
    "tab": "CONTENT",
    "expanded": false,
    "type": "group",
    "default": {
      "type": "none",
      "style": "filled",
      "text": "LEARN MORE",
      "link": "#"
    }
  },
  {
    "id": "93af8462-ceb1-8d7c-3e9b-2af10bf3e199",
    "name": "form",
    "label": "Form",
    "required": false,
    "locked": false,
    "children": [
      {
        "id": "36192c27-c655-1e83-2b9c-d881ed17ea14",
        "name": "enabled",
        "label": "Enabled",
        "required": false,
        "locked": false,
        "display": "checkbox",
        "type": "boolean",
        "default": false
      },
      {
        "id": "e004f59a-5fe7-599e-3948-b2bffe70ea57",
        "name": "selector",
        "label": "Selector",
        "required": false,
        "locked": false,
        "visibility": {
          "controlling_field": "36192c27-c655-1e83-2b9c-d881ed17ea14",
          "controlling_value_regex": "true",
          "operator": "EQUAL",
          "access": null,
          "hidden_subfields": null
        },
        "type": "form",
        "default": {
          "response_type": "inline",
          "message": "Thanks for submitting the form."
        }
      }
    ],
    "tab": "CONTENT",
    "expanded": false,
    "type": "group",
    "default": {
      "enabled": false,
      "selector": {
        "response_type": "inline",
        "message": "Thanks for submitting the form."
      }
    }
  },
  {
    "id": "alignment",
    "name": "alignment",
    "label": "Alignment",
    "required": true,
    "locked": false,
    "display": "select",
    "choices": [
      ["left", "Left"],
      ["right", "Right"],
      ["center", "Center"]
    ],
    "type": "choice",
    "default": "left"
  },
  {
    "id": "9b2147a5-07bd-75e3-d864-32f914ff8b45",
    "name": "max_width",
    "label": "Max width",
    "required": false,
    "locked": false,
    "children": [
      {
        "id": "38f53c66-12f5-6188-410b-bce279d24989",
        "name": "enabled",
        "label": "Enabled",
        "required": false,
        "locked": false,
        "display": "checkbox",
        "type": "boolean",
        "default": false
      },
      {
        "id": "e846c723-af4b-3c33-b766-29d98af749f9",
        "name": "value",
        "label": "value",
        "required": false,
        "locked": false,
        "visibility": {
          "controlling_field": "38f53c66-12f5-6188-410b-bce279d24989",
          "controlling_value_regex": "true",
          "operator": "EQUAL",
          "access": null,
          "hidden_subfields": null
        },
        "display": "text",
        "min": 0,
        "step": 1,
        "type": "number",
        "default": 680
      }
    ],
    "tab": "CONTENT",
    "expanded": false,
    "type": "group",
    "default": {
      "enabled": false,
      "value": 680
    }
  }
]
